{
  "version": "1.7.0",
  "config": {
    "name": "Climaximo - Aktivisda",
    "id": "climaximo",
    "description": "Create your visuals for Climaximo. in a few minutes!",
    "availableLangs": [
      "pt",
      "en"
    ],
    "matomo": {
      "enabled": true,
      "host": "https://stats.aktivisda.earth/matomo",
      "siteId": 18
    },
    "email": "climaximo@aktivisda.earth",
    "url": "https://climaximo.aktivisda.earth/",
    "about": {
      "fr": "About My wonderful Organization.(<b>HTML allowed</b>)."
    },
    "gitlab": {
      "projectId": "103712",
      "url": "https://framagit.org",
      "repo": "/aktivisda/climaximo",
      "branch": "main"
    },
    "backtivisda": {
      "server": "https://server.aktivisda.earth"
    }
  }
}