{
    "version": "1.0.11",
    "fonts": [
    {
        "css": {
            "font-style": "normal",
            "font-weight": "normal",
            "font-display": null,
            "unicode-range": null
        },
        "fontName": "Unbounded-Black",
        "directory": "./Unbounded",
        "formats": {
            "otf": "Unbounded-Black.otf",
            "woff": "Unbounded-Black.woff",
            "ttf": "Unbounded-Black.ttf"
        },
        "name": "Unbounded Black",
        "loaded": false,
        "italic": false,
        "bold": false,
        "alwaysLoaded": true,
        "default": true
    },
    {
        "css": {
            "font-style": "normal",
            "font-weight": "bold",
            "font-display": null,
            "unicode-range": null
        },
        "fontName": "Unbounded-Bold",
        "directory": "./Unbounded",
        "formats": {
            "otf": "Unbounded-Bold.otf",
            "woff": "Unbounded-Bold.woff",
            "ttf": "Unbounded-Bold.ttf"
        },
        "name": "Unbounded Bold",
        "loaded": false,
        "italic": false,
        "bold": true,
        "alwaysLoaded": true,
        "default": true
    },
    {
        "css": {
            "font-style": "normal",
            "font-weight": "normal",
            "font-display": null,
            "unicode-range": null
        },
        "fontName": "Unbounded-ExtraLight",
        "directory": "./Unbounded",
        "formats": {
            "otf": "Unbounded-ExtraLight.otf",
            "woff": "Unbounded-ExtraLight.woff",
            "ttf": "Unbounded-ExtraLight.ttf"
        },
        "name": "Unbounded ExtraLight",
        "loaded": false,
        "italic": false,
        "bold": false,
        "alwaysLoaded": true,
        "default": true
    },
    {
        "css": {
            "font-style": "normal",
            "font-weight": "normal",
            "font-display": null,
            "unicode-range": null
        },
        "fontName": "Unbounded-Light",
        "directory": "./Unbounded",
        "formats": {
            "otf": "Unbounded-Light.otf",
            "woff": "Unbounded-Light.woff",
            "ttf": "Unbounded-Light.ttf"
        },
        "name": "Unbounded Light",
        "loaded": false,
        "italic": false,
        "bold": false,
        "alwaysLoaded": true,
        "default": true
    },
    {
        "css": {
            "font-style": "normal",
            "font-weight": "normal",
            "font-display": null,
            "unicode-range": null
        },
        "fontName": "Unbounded-Regular",
        "directory": "./Unbounded",
        "formats": {
            "otf": "Unbounded-Regular.otf",
            "woff": "Unbounded-Regular.woff",
            "ttf": "Unbounded-Regular.ttf"
        },
        "name": "Unbounded Regular",
        "loaded": false,
        "italic": false,
        "bold": false,
        "alwaysLoaded": true,
        "default": true
    },
    {
        "css": {
            "font-style": "normal",
            "font-weight": "normal",
            "font-display": null,
            "unicode-range": null
        },
        "fontName": "Unbounded-Medium",
        "directory": "./Unbounded",
        "formats": {
            "otf": "Unbounded-Medium.otf",
            "woff": "Unbounded-Medium.woff",
            "ttf": "Unbounded-Medium.ttf"
        },
        "name": "Unbounded Medium",
        "loaded": false,
        "italic": false,
        "bold": false,
        "alwaysLoaded": true,
        "default": true
    },
    {
        "css": {
            "font-style": "normal",
            "font-weight": "normal",
            "font-display": null,
            "unicode-range": null
        },
        "fontName": "Unbounded-SemiBold",
        "directory": "./Unbounded",
        "formats": {
            "otf": "Unbounded-SemiBold.otf",
            "woff": "Unbounded-SemiBold.woff",
            "ttf": "Unbounded-SemiBold.ttf"
        },
        "name": "Unbounded SemiBold",
        "loaded": false,
        "italic": false,
        "bold": false,
        "alwaysLoaded": true,
        "default": true
    },
    {
        "css": {
            "font-style": "normal",
            "font-weight": "normal",
            "font-display": null,
            "unicode-range": null
        },
        "fontName": "Unbounded-ExtraBold",
        "directory": "./Unbounded",
        "formats": {
            "otf": "Unbounded-ExtraBold.otf",
            "woff": "Unbounded-ExtraBold.woff",
            "ttf": "Unbounded-ExtraBold.ttf"
        },
        "name": "Unbounded ExtraBold",
        "loaded": false,
        "italic": false,
        "bold": false,
        "alwaysLoaded": true,
        "default": true
    }
]
}