[
    [
        "#ffffff"
    ],
    [
        "#00000e"
    ],
    [
        "#00000e", "#ff0000"
    ],
    [
        "#ffecd8", "#ff0000"
    ],
    [
        "#00000e", "#ffecd8"
    ],
    [
        "#00000e", "#ffecd8", "#ff0000"
    ]
]